-- Merging decision tree log ---
manifest
ADDED from E:\Tamil\Doctor-17052021\Doctor\doctaz-master\doctaz-master\loaderlibrary\src\main\AndroidManifest.xml:2:1-7:12
INJECTED from E:\Tamil\Doctor-17052021\Doctor\doctaz-master\doctaz-master\loaderlibrary\src\main\AndroidManifest.xml:2:1-7:12
INJECTED from E:\Tamil\Doctor-17052021\Doctor\doctaz-master\doctaz-master\loaderlibrary\src\main\AndroidManifest.xml:2:1-7:12
INJECTED from E:\Tamil\Doctor-17052021\Doctor\doctaz-master\doctaz-master\loaderlibrary\src\main\AndroidManifest.xml:2:1-7:12
INJECTED from E:\Tamil\Doctor-17052021\Doctor\doctaz-master\doctaz-master\loaderlibrary\src\main\AndroidManifest.xml:2:1-7:12
INJECTED from E:\Tamil\Doctor-17052021\Doctor\doctaz-master\doctaz-master\loaderlibrary\src\main\AndroidManifest.xml:2:1-7:12
INJECTED from E:\Tamil\Doctor-17052021\Doctor\doctaz-master\doctaz-master\loaderlibrary\src\main\AndroidManifest.xml:2:1-7:12
	package
		ADDED from E:\Tamil\Doctor-17052021\Doctor\doctaz-master\doctaz-master\loaderlibrary\src\main\AndroidManifest.xml:3:5-54
		INJECTED from E:\Tamil\Doctor-17052021\Doctor\doctaz-master\doctaz-master\loaderlibrary\src\main\AndroidManifest.xml
		INJECTED from E:\Tamil\Doctor-17052021\Doctor\doctaz-master\doctaz-master\loaderlibrary\src\main\AndroidManifest.xml
	android:versionName
		INJECTED from E:\Tamil\Doctor-17052021\Doctor\doctaz-master\doctaz-master\loaderlibrary\src\main\AndroidManifest.xml
		ADDED from E:\Tamil\Doctor-17052021\Doctor\doctaz-master\doctaz-master\loaderlibrary\src\main\AndroidManifest.xml:2:1-7:12
		INJECTED from E:\Tamil\Doctor-17052021\Doctor\doctaz-master\doctaz-master\loaderlibrary\src\main\AndroidManifest.xml
	xmlns:android
		ADDED from E:\Tamil\Doctor-17052021\Doctor\doctaz-master\doctaz-master\loaderlibrary\src\main\AndroidManifest.xml:2:1-7:12
	android:versionCode
		INJECTED from E:\Tamil\Doctor-17052021\Doctor\doctaz-master\doctaz-master\loaderlibrary\src\main\AndroidManifest.xml
		ADDED from E:\Tamil\Doctor-17052021\Doctor\doctaz-master\doctaz-master\loaderlibrary\src\main\AndroidManifest.xml:2:1-7:12
		INJECTED from E:\Tamil\Doctor-17052021\Doctor\doctaz-master\doctaz-master\loaderlibrary\src\main\AndroidManifest.xml
application
ADDED from E:\Tamil\Doctor-17052021\Doctor\doctaz-master\doctaz-master\loaderlibrary\src\main\AndroidManifest.xml:5:5-19
uses-sdk
INJECTED from E:\Tamil\Doctor-17052021\Doctor\doctaz-master\doctaz-master\loaderlibrary\src\main\AndroidManifest.xml reason: use-sdk injection requested
INJECTED from E:\Tamil\Doctor-17052021\Doctor\doctaz-master\doctaz-master\loaderlibrary\src\main\AndroidManifest.xml
INJECTED from E:\Tamil\Doctor-17052021\Doctor\doctaz-master\doctaz-master\loaderlibrary\src\main\AndroidManifest.xml
INJECTED from E:\Tamil\Doctor-17052021\Doctor\doctaz-master\doctaz-master\loaderlibrary\src\main\AndroidManifest.xml
INJECTED from E:\Tamil\Doctor-17052021\Doctor\doctaz-master\doctaz-master\loaderlibrary\src\main\AndroidManifest.xml
	android:targetSdkVersion
		INJECTED from E:\Tamil\Doctor-17052021\Doctor\doctaz-master\doctaz-master\loaderlibrary\src\main\AndroidManifest.xml
		ADDED from E:\Tamil\Doctor-17052021\Doctor\doctaz-master\doctaz-master\loaderlibrary\src\main\AndroidManifest.xml
		INJECTED from E:\Tamil\Doctor-17052021\Doctor\doctaz-master\doctaz-master\loaderlibrary\src\main\AndroidManifest.xml
	android:minSdkVersion
		INJECTED from E:\Tamil\Doctor-17052021\Doctor\doctaz-master\doctaz-master\loaderlibrary\src\main\AndroidManifest.xml
		ADDED from E:\Tamil\Doctor-17052021\Doctor\doctaz-master\doctaz-master\loaderlibrary\src\main\AndroidManifest.xml
		INJECTED from E:\Tamil\Doctor-17052021\Doctor\doctaz-master\doctaz-master\loaderlibrary\src\main\AndroidManifest.xml
